^C:\MY PROJECTS\C++\CONSOLEAPPLICATION4\CONSOLEAPPLICATION4.CPP
C:\MY PROJECTS\C++\CONSOLEAPPLICATION4\DEBUG\VC142.PDB
C:\MY PROJECTS\C++\CONSOLEAPPLICATION4\DEBUG\VC142.IDB
C:\MY PROJECTS\C++\CONSOLEAPPLICATION4\DEBUG\CONSOLEAPPLICATION4.OBJ
